2,0;3010,0
4,0;3010,0
6,0;3006,0
8,0;3004,0
10,0;2987,0
12,0;2954,0
14,0;2937,0
16,0;2930,0
18,0;2916,0
20,0;2919,0
22,0;2909,0
24,0;2889,0
26,0;2867,0
28,0;2863,0
30,0;2848,0
32,0;2838,0
34,0;2809,0
36,0;2796,0
38,0;2781,0
40,0;2754,0
42,0;2740,0
44,0;2721,0
46,0;2686,0
48,0;2677,0
50,0;2662,0
52,0;2652,0
54,0;2635,0
56,0;2614,0
58,0;2586,0
60,0;2574,0
62,0;2552,0
64,0;2528,0
66,0;2516,0
68,0;2495,0
70,0;2473,0
72,0;2422,0
74,0;2398,0
76,0;2375,0
78,0;2349,0
80,0;2321,0
82,0;2293,0
84,0;2249,0
86,0;2205,0
88,0;2167,0
90,0;2134,0
92,0;2075,0
94,0;2062,0
96,0;2019,0
98,0;1940,0
100,0;1902,0
102,0;1853,0
104,0;1806,0
106,0;1738,0
108,0;1729,0
110,0;1658,0
112,0;1653,0
114,0;1588,0
116,0;1560,0
118,0;1517,0
120,0;1451,0
122,0;1429,0
124,0;1371,0
126,0;1323,0
128,0;1281,0
130,0;1222,0
132,0;1123,0
134,0;1158,0
136,0;1089,0
138,0;996,0
140,0;941,0
142,0;857,0
144,0;865,0
146,0;887,0
148,0;783,0
150,0;729,0
152,0;669,0
154,0;605,0
156,0;624,0
158,0;575,0
160,0;539,0
162,0;498,0
164,0;442,0
166,0;364,0
168,0;458,0
170,0;327,0
172,0;283,0
174,0;332,0
176,0;294,0
178,0;236,0
180,0;216,0
182,0;189,0
184,0;90,0
186,0;122,0
188,0;93,0
190,0;95,0
192,0;64,0
194,0;98,0
196,0;45,0
198,0;36,0
200,0;48,0
202,0;24,0
204,0;37,0
206,0;20,0
208,0;18,0
210,0;2,0
